%YAML 1.1
%TAG !u! tag:unity3d.com,2011:
--- !u!114 &11400000
MonoBehaviour:
  m_ObjectHideFlags: 0
  m_CorrespondingSourceObject: {fileID: 0}
  m_PrefabInstance: {fileID: 0}
  m_PrefabAsset: {fileID: 0}
  m_GameObject: {fileID: 0}
  m_Enabled: 1
  m_EditorHideFlags: 0
  m_Script: {fileID: 11500000, guid: 84a92b25f83d49b9bc132d206b370281, type: 3}
  m_Name: emoji_set_classic
  m_EditorClassIdentifier: 
  hashCode: 481441634
  material: {fileID: 21765685661034196}
  materialHashCode: 0
  m_Version: 1.1.0
  spriteSheet: {fileID: 2800000, guid: f31d0534d769f45869d4ee7f649b1d57, type: 3}
  m_SpriteCharacterTable:
  - m_ElementType: 2
    m_Unicode: 0
    m_GlyphIndex: 0
    m_Scale: 1.1
    m_Name: emoji_set_classic_0
    m_HashCode: 303932333
  - m_ElementType: 2
    m_Unicode: 0
    m_GlyphIndex: 1
    m_Scale: 1.1
    m_Name: emoji_set_classic_1
    m_HashCode: 303932332
  - m_ElementType: 2
    m_Unicode: 0
    m_GlyphIndex: 2
    m_Scale: 1.1
    m_Name: emoji_set_classic_2
    m_HashCode: 303932335
  - m_ElementType: 2
    m_Unicode: 0
    m_GlyphIndex: 3
    m_Scale: 1.1
    m_Name: emoji_set_classic_3
    m_HashCode: 303932334
  - m_ElementType: 2
    m_Unicode: 0
    m_GlyphIndex: 4
    m_Scale: 1.1
    m_Name: emoji_set_classic_4
    m_HashCode: 303932329
  - m_ElementType: 2
    m_Unicode: 0
    m_GlyphIndex: 5
    m_Scale: 1.1
    m_Name: emoji_set_classic_5
    m_HashCode: 303932328
  - m_ElementType: 2
    m_Unicode: 0
    m_GlyphIndex: 6
    m_Scale: 1.1
    m_Name: emoji_set_classic_6
    m_HashCode: 303932331
  - m_ElementType: 2
    m_Unicode: 0
    m_GlyphIndex: 7
    m_Scale: 1.1
    m_Name: emoji_set_classic_8
    m_HashCode: 303932325
  - m_ElementType: 2
    m_Unicode: 0
    m_GlyphIndex: 8
    m_Scale: 1.1
    m_Name: emoji_set_classic_7
    m_HashCode: 303932330
  - m_ElementType: 2
    m_Unicode: 0
    m_GlyphIndex: 9
    m_Scale: 1.1
    m_Name: emoji_set_classic_9
    m_HashCode: 303932324
  - m_ElementType: 2
    m_Unicode: 0
    m_GlyphIndex: 10
    m_Scale: 1.1
    m_Name: emoji_set_classic_10
    m_HashCode: 1439832348
  - m_ElementType: 2
    m_Unicode: 0
    m_GlyphIndex: 11
    m_Scale: 1.1
    m_Name: emoji_set_classic_11
    m_HashCode: 1439832349
  - m_ElementType: 2
    m_Unicode: 0
    m_GlyphIndex: 12
    m_Scale: 1.1
    m_Name: emoji_set_classic_12
    m_HashCode: 1439832350
  - m_ElementType: 2
    m_Unicode: 0
    m_GlyphIndex: 13
    m_Scale: 1.1
    m_Name: emoji_set_classic_13
    m_HashCode: 1439832351
  - m_ElementType: 2
    m_Unicode: 0
    m_GlyphIndex: 14
    m_Scale: 1.1
    m_Name: emoji_set_classic_14
    m_HashCode: 1439832344
  - m_ElementType: 2
    m_Unicode: 0
    m_GlyphIndex: 15
    m_Scale: 1.1
    m_Name: emoji_set_classic_15
    m_HashCode: 1439832345
  - m_ElementType: 2
    m_Unicode: 0
    m_GlyphIndex: 16
    m_Scale: 1.1
    m_Name: emoji_set_classic_16
    m_HashCode: 1439832346
  - m_ElementType: 2
    m_Unicode: 0
    m_GlyphIndex: 17
    m_Scale: 1.1
    m_Name: emoji_set_classic_17
    m_HashCode: 1439832347
  - m_ElementType: 2
    m_Unicode: 0
    m_GlyphIndex: 18
    m_Scale: 1.1
    m_Name: emoji_set_classic_19
    m_HashCode: 1439832341
  - m_ElementType: 2
    m_Unicode: 0
    m_GlyphIndex: 19
    m_Scale: 1.1
    m_Name: emoji_set_classic_18
    m_HashCode: 1439832340
  - m_ElementType: 2
    m_Unicode: 0
    m_GlyphIndex: 20
    m_Scale: 1.1
    m_Name: emoji_set_classic_24
    m_HashCode: 1439832507
  - m_ElementType: 2
    m_Unicode: 0
    m_GlyphIndex: 21
    m_Scale: 1.1
    m_Name: emoji_set_classic_21
    m_HashCode: 1439832510
  - m_ElementType: 2
    m_Unicode: 0
    m_GlyphIndex: 22
    m_Scale: 1.1
    m_Name: emoji_set_classic_22
    m_HashCode: 1439832509
  - m_ElementType: 2
    m_Unicode: 0
    m_GlyphIndex: 23
    m_Scale: 1.1
    m_Name: emoji_set_classic_23
    m_HashCode: 1439832508
  - m_ElementType: 2
    m_Unicode: 0
    m_GlyphIndex: 24
    m_Scale: 1.1
    m_Name: emoji_set_classic_20
    m_HashCode: 1439832511
  - m_ElementType: 2
    m_Unicode: 0
    m_GlyphIndex: 25
    m_Scale: 1.1
    m_Name: emoji_set_classic_25
    m_HashCode: 1439832506
  - m_ElementType: 2
    m_Unicode: 0
    m_GlyphIndex: 26
    m_Scale: 1.1
    m_Name: emoji_set_classic_26
    m_HashCode: 1439832505
  - m_ElementType: 2
    m_Unicode: 0
    m_GlyphIndex: 27
    m_Scale: 1.1
    m_Name: emoji_set_classic_27
    m_HashCode: 1439832504
  - m_ElementType: 2
    m_Unicode: 0
    m_GlyphIndex: 28
    m_Scale: 1.1
    m_Name: emoji_set_classic_28
    m_HashCode: 1439832503
  - m_ElementType: 2
    m_Unicode: 0
    m_GlyphIndex: 29
    m_Scale: 1.1
    m_Name: emoji_set_classic_29
    m_HashCode: 1439832502
  - m_ElementType: 2
    m_Unicode: 0
    m_GlyphIndex: 30
    m_Scale: 1.1
    m_Name: emoji_set_classic_30
    m_HashCode: 1439832414
  - m_ElementType: 2
    m_Unicode: 0
    m_GlyphIndex: 31
    m_Scale: 1.1
    m_Name: emoji_set_classic_31
    m_HashCode: 1439832415
  - m_ElementType: 2
    m_Unicode: 0
    m_GlyphIndex: 32
    m_Scale: 1.1
    m_Name: emoji_set_classic_32
    m_HashCode: 1439832412
  - m_ElementType: 2
    m_Unicode: 0
    m_GlyphIndex: 33
    m_Scale: 1.1
    m_Name: emoji_set_classic_33
    m_HashCode: 1439832413
  - m_ElementType: 2
    m_Unicode: 0
    m_GlyphIndex: 34
    m_Scale: 1.1
    m_Name: emoji_set_classic_34
    m_HashCode: 1439832410
  - m_ElementType: 2
    m_Unicode: 0
    m_GlyphIndex: 35
    m_Scale: 1.1
    m_Name: emoji_set_classic_35
    m_HashCode: 1439832411
  - m_ElementType: 2
    m_Unicode: 0
    m_GlyphIndex: 36
    m_Scale: 1.1
    m_Name: emoji_set_classic_36
    m_HashCode: 1439832408
  - m_ElementType: 2
    m_Unicode: 0
    m_GlyphIndex: 37
    m_Scale: 1.1
    m_Name: emoji_set_classic_37
    m_HashCode: 1439832409
  - m_ElementType: 2
    m_Unicode: 0
    m_GlyphIndex: 38
    m_Scale: 1.1
    m_Name: emoji_set_classic_38
    m_HashCode: 1439832406
  - m_ElementType: 2
    m_Unicode: 0
    m_GlyphIndex: 39
    m_Scale: 1.1
    m_Name: emoji_set_classic_39
    m_HashCode: 1439832407
  - m_ElementType: 2
    m_Unicode: 0
    m_GlyphIndex: 40
    m_Scale: 1.1
    m_Name: emoji_set_classic_40
    m_HashCode: 1439832313
  - m_ElementType: 2
    m_Unicode: 0
    m_GlyphIndex: 41
    m_Scale: 1.1
    m_Name: emoji_set_classic_41
    m_HashCode: 1439832312
  - m_ElementType: 2
    m_Unicode: 0
    m_GlyphIndex: 42
    m_Scale: 1.1
    m_Name: emoji_set_classic_42
    m_HashCode: 1439832315
  - m_ElementType: 2
    m_Unicode: 0
    m_GlyphIndex: 43
    m_Scale: 1.1
    m_Name: emoji_set_classic_43
    m_HashCode: 1439832314
  - m_ElementType: 2
    m_Unicode: 0
    m_GlyphIndex: 44
    m_Scale: 1.1
    m_Name: emoji_set_classic_44
    m_HashCode: 1439832317
  m_SpriteGlyphTable:
  - m_Index: 0
    m_Metrics:
      m_Width: 87
      m_Height: 89
      m_HorizontalBearingX: 5
      m_HorizontalBearingY: 73
      m_HorizontalAdvance: 87
    m_GlyphRect:
      m_X: 10
      m_Y: 854
      m_Width: 87
      m_Height: 89
    m_Scale: 1
    m_AtlasIndex: 0
    sprite: {fileID: 21300000, guid: f31d0534d769f45869d4ee7f649b1d57, type: 3}
  - m_Index: 1
    m_Metrics:
      m_Width: 87
      m_Height: 89
      m_HorizontalBearingX: 5
      m_HorizontalBearingY: 73
      m_HorizontalAdvance: 87
    m_GlyphRect:
      m_X: 116
      m_Y: 855
      m_Width: 87
      m_Height: 89
    m_Scale: 1
    m_AtlasIndex: 0
    sprite: {fileID: 21300002, guid: f31d0534d769f45869d4ee7f649b1d57, type: 3}
  - m_Index: 2
    m_Metrics:
      m_Width: 88
      m_Height: 90
      m_HorizontalBearingX: 5
      m_HorizontalBearingY: 73
      m_HorizontalAdvance: 88
    m_GlyphRect:
      m_X: 223
      m_Y: 853
      m_Width: 88
      m_Height: 90
    m_Scale: 1
    m_AtlasIndex: 0
    sprite: {fileID: 21300004, guid: f31d0534d769f45869d4ee7f649b1d57, type: 3}
  - m_Index: 3
    m_Metrics:
      m_Width: 88
      m_Height: 90
      m_HorizontalBearingX: 5
      m_HorizontalBearingY: 73
      m_HorizontalAdvance: 88
    m_GlyphRect:
      m_X: 332
      m_Y: 853
      m_Width: 88
      m_Height: 90
    m_Scale: 1
    m_AtlasIndex: 0
    sprite: {fileID: 21300006, guid: f31d0534d769f45869d4ee7f649b1d57, type: 3}
  - m_Index: 4
    m_Metrics:
      m_Width: 87
      m_Height: 89
      m_HorizontalBearingX: 5
      m_HorizontalBearingY: 73
      m_HorizontalAdvance: 87
    m_GlyphRect:
      m_X: 440
      m_Y: 855
      m_Width: 87
      m_Height: 89
    m_Scale: 1
    m_AtlasIndex: 0
    sprite: {fileID: 21300008, guid: f31d0534d769f45869d4ee7f649b1d57, type: 3}
  - m_Index: 5
    m_Metrics:
      m_Width: 89
      m_Height: 90
      m_HorizontalBearingX: 5
      m_HorizontalBearingY: 73
      m_HorizontalAdvance: 89
    m_GlyphRect:
      m_X: 8
      m_Y: 750
      m_Width: 89
      m_Height: 90
    m_Scale: 1
    m_AtlasIndex: 0
    sprite: {fileID: 21300010, guid: f31d0534d769f45869d4ee7f649b1d57, type: 3}
  - m_Index: 6
    m_Metrics:
      m_Width: 88
      m_Height: 90
      m_HorizontalBearingX: 5
      m_HorizontalBearingY: 73
      m_HorizontalAdvance: 88
    m_GlyphRect:
      m_X: 115
      m_Y: 751
      m_Width: 88
      m_Height: 90
    m_Scale: 1
    m_AtlasIndex: 0
    sprite: {fileID: 21300012, guid: f31d0534d769f45869d4ee7f649b1d57, type: 3}
  - m_Index: 7
    m_Metrics:
      m_Width: 87
      m_Height: 89
      m_HorizontalBearingX: 5
      m_HorizontalBearingY: 73
      m_HorizontalAdvance: 87
    m_GlyphRect:
      m_X: 333
      m_Y: 752
      m_Width: 87
      m_Height: 89
    m_Scale: 1
    m_AtlasIndex: 0
    sprite: {fileID: 21300016, guid: f31d0534d769f45869d4ee7f649b1d57, type: 3}
  - m_Index: 8
    m_Metrics:
      m_Width: 107
      m_Height: 103
      m_HorizontalBearingX: 5
      m_HorizontalBearingY: 73
      m_HorizontalAdvance: 107
    m_GlyphRect:
      m_X: 219
      m_Y: 744
      m_Width: 107
      m_Height: 103
    m_Scale: 1
    m_AtlasIndex: 0
    sprite: {fileID: 21300014, guid: f31d0534d769f45869d4ee7f649b1d57, type: 3}
  - m_Index: 9
    m_Metrics:
      m_Width: 105
      m_Height: 102
      m_HorizontalBearingX: 5
      m_HorizontalBearingY: 73
      m_HorizontalAdvance: 105
    m_GlyphRect:
      m_X: 436
      m_Y: 745
      m_Width: 105
      m_Height: 102
    m_Scale: 1
    m_AtlasIndex: 0
    sprite: {fileID: 21300018, guid: f31d0534d769f45869d4ee7f649b1d57, type: 3}
  - m_Index: 10
    m_Metrics:
      m_Width: 88
      m_Height: 90
      m_HorizontalBearingX: 5
      m_HorizontalBearingY: 73
      m_HorizontalAdvance: 88
    m_GlyphRect:
      m_X: 9
      m_Y: 649
      m_Width: 88
      m_Height: 90
    m_Scale: 1
    m_AtlasIndex: 0
    sprite: {fileID: 21300020, guid: f31d0534d769f45869d4ee7f649b1d57, type: 3}
  - m_Index: 11
    m_Metrics:
      m_Width: 88
      m_Height: 90
      m_HorizontalBearingX: 5
      m_HorizontalBearingY: 73
      m_HorizontalAdvance: 88
    m_GlyphRect:
      m_X: 121
      m_Y: 649
      m_Width: 88
      m_Height: 90
    m_Scale: 1
    m_AtlasIndex: 0
    sprite: {fileID: 21300022, guid: f31d0534d769f45869d4ee7f649b1d57, type: 3}
  - m_Index: 12
    m_Metrics:
      m_Width: 96
      m_Height: 89
      m_HorizontalBearingX: 5
      m_HorizontalBearingY: 73
      m_HorizontalAdvance: 96
    m_GlyphRect:
      m_X: 225
      m_Y: 650
      m_Width: 96
      m_Height: 89
    m_Scale: 1
    m_AtlasIndex: 0
    sprite: {fileID: 21300024, guid: f31d0534d769f45869d4ee7f649b1d57, type: 3}
  - m_Index: 13
    m_Metrics:
      m_Width: 88
      m_Height: 90
      m_HorizontalBearingX: 5
      m_HorizontalBearingY: 73
      m_HorizontalAdvance: 88
    m_GlyphRect:
      m_X: 336
      m_Y: 650
      m_Width: 88
      m_Height: 90
    m_Scale: 1
    m_AtlasIndex: 0
    sprite: {fileID: 21300026, guid: f31d0534d769f45869d4ee7f649b1d57, type: 3}
  - m_Index: 14
    m_Metrics:
      m_Width: 99
      m_Height: 90
      m_HorizontalBearingX: 5
      m_HorizontalBearingY: 73
      m_HorizontalAdvance: 99
    m_GlyphRect:
      m_X: 444
      m_Y: 650
      m_Width: 99
      m_Height: 90
    m_Scale: 1
    m_AtlasIndex: 0
    sprite: {fileID: 21300028, guid: f31d0534d769f45869d4ee7f649b1d57, type: 3}
  - m_Index: 15
    m_Metrics:
      m_Width: 99
      m_Height: 90
      m_HorizontalBearingX: 5
      m_HorizontalBearingY: 73
      m_HorizontalAdvance: 99
    m_GlyphRect:
      m_X: 3
      m_Y: 549
      m_Width: 99
      m_Height: 90
    m_Scale: 1
    m_AtlasIndex: 0
    sprite: {fileID: 21300030, guid: f31d0534d769f45869d4ee7f649b1d57, type: 3}
  - m_Index: 16
    m_Metrics:
      m_Width: 106
      m_Height: 90
      m_HorizontalBearingX: 5
      m_HorizontalBearingY: 73
      m_HorizontalAdvance: 106
    m_GlyphRect:
      m_X: 107
      m_Y: 549
      m_Width: 106
      m_Height: 90
    m_Scale: 1
    m_AtlasIndex: 0
    sprite: {fileID: 21300032, guid: f31d0534d769f45869d4ee7f649b1d57, type: 3}
  - m_Index: 17
    m_Metrics:
      m_Width: 88
      m_Height: 90
      m_HorizontalBearingX: 5
      m_HorizontalBearingY: 73
      m_HorizontalAdvance: 88
    m_GlyphRect:
      m_X: 225
      m_Y: 549
      m_Width: 88
      m_Height: 90
    m_Scale: 1
    m_AtlasIndex: 0
    sprite: {fileID: 21300034, guid: f31d0534d769f45869d4ee7f649b1d57, type: 3}
  - m_Index: 18
    m_Metrics:
      m_Width: 88
      m_Height: 90
      m_HorizontalBearingX: 5
      m_HorizontalBearingY: 73
      m_HorizontalAdvance: 88
    m_GlyphRect:
      m_X: 445
      m_Y: 549
      m_Width: 88
      m_Height: 90
    m_Scale: 1
    m_AtlasIndex: 0
    sprite: {fileID: 21300038, guid: f31d0534d769f45869d4ee7f649b1d57, type: 3}
  - m_Index: 19
    m_Metrics:
      m_Width: 88
      m_Height: 99
      m_HorizontalBearingX: 5
      m_HorizontalBearingY: 73
      m_HorizontalAdvance: 88
    m_GlyphRect:
      m_X: 336
      m_Y: 540
      m_Width: 88
      m_Height: 99
    m_Scale: 1
    m_AtlasIndex: 0
    sprite: {fileID: 21300036, guid: f31d0534d769f45869d4ee7f649b1d57, type: 3}
  - m_Index: 20
    m_Metrics:
      m_Width: 89
      m_Height: 89
      m_HorizontalBearingX: 5
      m_HorizontalBearingY: 73
      m_HorizontalAdvance: 89
    m_GlyphRect:
      m_X: 444
      m_Y: 444
      m_Width: 89
      m_Height: 89
    m_Scale: 1
    m_AtlasIndex: 0
    sprite: {fileID: 21300048, guid: f31d0534d769f45869d4ee7f649b1d57, type: 3}
  - m_Index: 21
    m_Metrics:
      m_Width: 99
      m_Height: 90
      m_HorizontalBearingX: 5
      m_HorizontalBearingY: 73
      m_HorizontalAdvance: 99
    m_GlyphRect:
      m_X: 117
      m_Y: 443
      m_Width: 99
      m_Height: 90
    m_Scale: 1
    m_AtlasIndex: 0
    sprite: {fileID: 21300042, guid: f31d0534d769f45869d4ee7f649b1d57, type: 3}
  - m_Index: 22
    m_Metrics:
      m_Width: 109
      m_Height: 90
      m_HorizontalBearingX: 5
      m_HorizontalBearingY: 73
      m_HorizontalAdvance: 109
    m_GlyphRect:
      m_X: 220
      m_Y: 443
      m_Width: 109
      m_Height: 90
    m_Scale: 1
    m_AtlasIndex: 0
    sprite: {fileID: 21300044, guid: f31d0534d769f45869d4ee7f649b1d57, type: 3}
  - m_Index: 23
    m_Metrics:
      m_Width: 88
      m_Height: 90
      m_HorizontalBearingX: 5
      m_HorizontalBearingY: 73
      m_HorizontalAdvance: 88
    m_GlyphRect:
      m_X: 336
      m_Y: 443
      m_Width: 88
      m_Height: 90
    m_Scale: 1
    m_AtlasIndex: 0
    sprite: {fileID: 21300046, guid: f31d0534d769f45869d4ee7f649b1d57, type: 3}
  - m_Index: 24
    m_Metrics:
      m_Width: 88
      m_Height: 101
      m_HorizontalBearingX: 5
      m_HorizontalBearingY: 73
      m_HorizontalAdvance: 88
    m_GlyphRect:
      m_X: 9
      m_Y: 432
      m_Width: 88
      m_Height: 101
    m_Scale: 1
    m_AtlasIndex: 0
    sprite: {fileID: 21300040, guid: f31d0534d769f45869d4ee7f649b1d57, type: 3}
  - m_Index: 25
    m_Metrics:
      m_Width: 88
      m_Height: 89
      m_HorizontalBearingX: 5
      m_HorizontalBearingY: 73
      m_HorizontalAdvance: 88
    m_GlyphRect:
      m_X: 10
      m_Y: 335
      m_Width: 88
      m_Height: 89
    m_Scale: 1
    m_AtlasIndex: 0
    sprite: {fileID: 21300050, guid: f31d0534d769f45869d4ee7f649b1d57, type: 3}
  - m_Index: 26
    m_Metrics:
      m_Width: 96
      m_Height: 90
      m_HorizontalBearingX: 5
      m_HorizontalBearingY: 73
      m_HorizontalAdvance: 96
    m_GlyphRect:
      m_X: 117
      m_Y: 334
      m_Width: 96
      m_Height: 90
    m_Scale: 1
    m_AtlasIndex: 0
    sprite: {fileID: 21300052, guid: f31d0534d769f45869d4ee7f649b1d57, type: 3}
  - m_Index: 27
    m_Metrics:
      m_Width: 87
      m_Height: 89
      m_HorizontalBearingX: 5
      m_HorizontalBearingY: 73
      m_HorizontalAdvance: 87
    m_GlyphRect:
      m_X: 226
      m_Y: 335
      m_Width: 87
      m_Height: 89
    m_Scale: 1
    m_AtlasIndex: 0
    sprite: {fileID: 21300054, guid: f31d0534d769f45869d4ee7f649b1d57, type: 3}
  - m_Index: 28
    m_Metrics:
      m_Width: 95
      m_Height: 89
      m_HorizontalBearingX: 5
      m_HorizontalBearingY: 73
      m_HorizontalAdvance: 95
    m_GlyphRect:
      m_X: 336
      m_Y: 335
      m_Width: 95
      m_Height: 89
    m_Scale: 1
    m_AtlasIndex: 0
    sprite: {fileID: 21300056, guid: f31d0534d769f45869d4ee7f649b1d57, type: 3}
  - m_Index: 29
    m_Metrics:
      m_Width: 87
      m_Height: 89
      m_HorizontalBearingX: 5
      m_HorizontalBearingY: 73
      m_HorizontalAdvance: 87
    m_GlyphRect:
      m_X: 447
      m_Y: 335
      m_Width: 87
      m_Height: 89
    m_Scale: 1
    m_AtlasIndex: 0
    sprite: {fileID: 21300058, guid: f31d0534d769f45869d4ee7f649b1d57, type: 3}
  - m_Index: 30
    m_Metrics:
      m_Width: 88
      m_Height: 97
      m_HorizontalBearingX: 5
      m_HorizontalBearingY: 73
      m_HorizontalAdvance: 88
    m_GlyphRect:
      m_X: 10
      m_Y: 233
      m_Width: 88
      m_Height: 97
    m_Scale: 1
    m_AtlasIndex: 0
    sprite: {fileID: 21300060, guid: f31d0534d769f45869d4ee7f649b1d57, type: 3}
  - m_Index: 31
    m_Metrics:
      m_Width: 88
      m_Height: 89
      m_HorizontalBearingX: 5
      m_HorizontalBearingY: 73
      m_HorizontalAdvance: 88
    m_GlyphRect:
      m_X: 121
      m_Y: 233
      m_Width: 88
      m_Height: 89
    m_Scale: 1
    m_AtlasIndex: 0
    sprite: {fileID: 21300062, guid: f31d0534d769f45869d4ee7f649b1d57, type: 3}
  - m_Index: 32
    m_Metrics:
      m_Width: 87
      m_Height: 92
      m_HorizontalBearingX: 5
      m_HorizontalBearingY: 73
      m_HorizontalAdvance: 87
    m_GlyphRect:
      m_X: 225
      m_Y: 229
      m_Width: 87
      m_Height: 92
    m_Scale: 1
    m_AtlasIndex: 0
    sprite: {fileID: 21300064, guid: f31d0534d769f45869d4ee7f649b1d57, type: 3}
  - m_Index: 33
    m_Metrics:
      m_Width: 87
      m_Height: 89
      m_HorizontalBearingX: 5
      m_HorizontalBearingY: 73
      m_HorizontalAdvance: 87
    m_GlyphRect:
      m_X: 336
      m_Y: 233
      m_Width: 87
      m_Height: 89
    m_Scale: 1
    m_AtlasIndex: 0
    sprite: {fileID: 21300066, guid: f31d0534d769f45869d4ee7f649b1d57, type: 3}
  - m_Index: 34
    m_Metrics:
      m_Width: 89
      m_Height: 93
      m_HorizontalBearingX: 5
      m_HorizontalBearingY: 73
      m_HorizontalAdvance: 89
    m_GlyphRect:
      m_X: 446
      m_Y: 230
      m_Width: 89
      m_Height: 93
    m_Scale: 1
    m_AtlasIndex: 0
    sprite: {fileID: 21300068, guid: f31d0534d769f45869d4ee7f649b1d57, type: 3}
  - m_Index: 35
    m_Metrics:
      m_Width: 87
      m_Height: 89
      m_HorizontalBearingX: 5
      m_HorizontalBearingY: 73
      m_HorizontalAdvance: 87
    m_GlyphRect:
      m_X: 12
      m_Y: 124
      m_Width: 87
      m_Height: 89
    m_Scale: 1
    m_AtlasIndex: 0
    sprite: {fileID: 21300070, guid: f31d0534d769f45869d4ee7f649b1d57, type: 3}
  - m_Index: 36
    m_Metrics:
      m_Width: 87
      m_Height: 102
      m_HorizontalBearingX: 5
      m_HorizontalBearingY: 73
      m_HorizontalAdvance: 87
    m_GlyphRect:
      m_X: 122
      m_Y: 115
      m_Width: 87
      m_Height: 102
    m_Scale: 1
    m_AtlasIndex: 0
    sprite: {fileID: 21300072, guid: f31d0534d769f45869d4ee7f649b1d57, type: 3}
  - m_Index: 37
    m_Metrics:
      m_Width: 96
      m_Height: 102
      m_HorizontalBearingX: 5
      m_HorizontalBearingY: 73
      m_HorizontalAdvance: 96
    m_GlyphRect:
      m_X: 224
      m_Y: 123
      m_Width: 96
      m_Height: 102
    m_Scale: 1
    m_AtlasIndex: 0
    sprite: {fileID: 21300074, guid: f31d0534d769f45869d4ee7f649b1d57, type: 3}
  - m_Index: 38
    m_Metrics:
      m_Width: 87
      m_Height: 92
      m_HorizontalBearingX: 5
      m_HorizontalBearingY: 73
      m_HorizontalAdvance: 87
    m_GlyphRect:
      m_X: 336
      m_Y: 124
      m_Width: 87
      m_Height: 92
    m_Scale: 1
    m_AtlasIndex: 0
    sprite: {fileID: 21300076, guid: f31d0534d769f45869d4ee7f649b1d57, type: 3}
  - m_Index: 39
    m_Metrics:
      m_Width: 87
      m_Height: 89
      m_HorizontalBearingX: 5
      m_HorizontalBearingY: 73
      m_HorizontalAdvance: 87
    m_GlyphRect:
      m_X: 444
      m_Y: 127
      m_Width: 87
      m_Height: 89
    m_Scale: 1
    m_AtlasIndex: 0
    sprite: {fileID: 21300078, guid: f31d0534d769f45869d4ee7f649b1d57, type: 3}
  - m_Index: 40
    m_Metrics:
      m_Width: 96
      m_Height: 91
      m_HorizontalBearingX: 5
      m_HorizontalBearingY: 73
      m_HorizontalAdvance: 96
    m_GlyphRect:
      m_X: 9
      m_Y: 5
      m_Width: 96
      m_Height: 91
    m_Scale: 1
    m_AtlasIndex: 0
    sprite: {fileID: 21300080, guid: f31d0534d769f45869d4ee7f649b1d57, type: 3}
  - m_Index: 41
    m_Metrics:
      m_Width: 96
      m_Height: 90
      m_HorizontalBearingX: 5
      m_HorizontalBearingY: 73
      m_HorizontalAdvance: 96
    m_GlyphRect:
      m_X: 115
      m_Y: 5
      m_Width: 96
      m_Height: 90
    m_Scale: 1
    m_AtlasIndex: 0
    sprite: {fileID: 21300082, guid: f31d0534d769f45869d4ee7f649b1d57, type: 3}
  - m_Index: 42
    m_Metrics:
      m_Width: 90
      m_Height: 91
      m_HorizontalBearingX: 5
      m_HorizontalBearingY: 73
      m_HorizontalAdvance: 90
    m_GlyphRect:
      m_X: 225
      m_Y: 9
      m_Width: 90
      m_Height: 91
    m_Scale: 1
    m_AtlasIndex: 0
    sprite: {fileID: 21300084, guid: f31d0534d769f45869d4ee7f649b1d57, type: 3}
  - m_Index: 43
    m_Metrics:
      m_Width: 88
      m_Height: 86
      m_HorizontalBearingX: 5
      m_HorizontalBearingY: 73
      m_HorizontalAdvance: 88
    m_GlyphRect:
      m_X: 336
      m_Y: 9
      m_Width: 88
      m_Height: 86
    m_Scale: 1
    m_AtlasIndex: 0
    sprite: {fileID: 21300086, guid: f31d0534d769f45869d4ee7f649b1d57, type: 3}
  - m_Index: 44
    m_Metrics:
      m_Width: 86
      m_Height: 93
      m_HorizontalBearingX: 5
      m_HorizontalBearingY: 73
      m_HorizontalAdvance: 86
    m_GlyphRect:
      m_X: 447
      m_Y: 6
      m_Width: 86
      m_Height: 93
    m_Scale: 1
    m_AtlasIndex: 0
    sprite: {fileID: 21300088, guid: f31d0534d769f45869d4ee7f649b1d57, type: 3}
  spriteInfoList:
  - id: 0
    x: 10
    y: 854
    width: 87
    height: 89
    xOffset: 5
    yOffset: 73
    xAdvance: 87
    scale: 1.1
    name: emoji_set_classic_0
    hashCode: 303932333
    unicode: 0
    pivot: {x: -43.5, y: 44.5}
    sprite: {fileID: 21300000, guid: f31d0534d769f45869d4ee7f649b1d57, type: 3}
  - id: 1
    x: 116
    y: 855
    width: 87
    height: 89
    xOffset: 5
    yOffset: 73
    xAdvance: 87
    scale: 1.1
    name: emoji_set_classic_1
    hashCode: 303932332
    unicode: 0
    pivot: {x: -43.5, y: 44.5}
    sprite: {fileID: 21300002, guid: f31d0534d769f45869d4ee7f649b1d57, type: 3}
  - id: 2
    x: 223
    y: 853
    width: 88
    height: 90
    xOffset: 5
    yOffset: 73
    xAdvance: 88
    scale: 1.1
    name: emoji_set_classic_2
    hashCode: 303932335
    unicode: 0
    pivot: {x: -44, y: 45}
    sprite: {fileID: 21300004, guid: f31d0534d769f45869d4ee7f649b1d57, type: 3}
  - id: 3
    x: 332
    y: 853
    width: 88
    height: 90
    xOffset: 5
    yOffset: 73
    xAdvance: 88
    scale: 1.1
    name: emoji_set_classic_3
    hashCode: 303932334
    unicode: 0
    pivot: {x: -44, y: 45}
    sprite: {fileID: 21300006, guid: f31d0534d769f45869d4ee7f649b1d57, type: 3}
  - id: 4
    x: 440
    y: 855
    width: 87
    height: 89
    xOffset: 5
    yOffset: 73
    xAdvance: 87
    scale: 1.1
    name: emoji_set_classic_4
    hashCode: 303932329
    unicode: 0
    pivot: {x: -43.5, y: 44.5}
    sprite: {fileID: 21300008, guid: f31d0534d769f45869d4ee7f649b1d57, type: 3}
  - id: 5
    x: 8
    y: 750
    width: 89
    height: 90
    xOffset: 5
    yOffset: 73
    xAdvance: 89
    scale: 1.1
    name: emoji_set_classic_5
    hashCode: 303932328
    unicode: 0
    pivot: {x: -44.5, y: 45}
    sprite: {fileID: 21300010, guid: f31d0534d769f45869d4ee7f649b1d57, type: 3}
  - id: 6
    x: 115
    y: 751
    width: 88
    height: 90
    xOffset: 5
    yOffset: 73
    xAdvance: 88
    scale: 1.1
    name: emoji_set_classic_6
    hashCode: 303932331
    unicode: 0
    pivot: {x: -44, y: 45}
    sprite: {fileID: 21300012, guid: f31d0534d769f45869d4ee7f649b1d57, type: 3}
  - id: 7
    x: 333
    y: 752
    width: 87
    height: 89
    xOffset: 5
    yOffset: 73
    xAdvance: 87
    scale: 1.1
    name: emoji_set_classic_8
    hashCode: 303932325
    unicode: 0
    pivot: {x: -43.5, y: 44.5}
    sprite: {fileID: 21300016, guid: f31d0534d769f45869d4ee7f649b1d57, type: 3}
  - id: 8
    x: 219
    y: 744
    width: 107
    height: 103
    xOffset: 5
    yOffset: 73
    xAdvance: 107
    scale: 1.1
    name: emoji_set_classic_7
    hashCode: 303932330
    unicode: 0
    pivot: {x: -53.5, y: 51.5}
    sprite: {fileID: 21300014, guid: f31d0534d769f45869d4ee7f649b1d57, type: 3}
  - id: 9
    x: 436
    y: 745
    width: 105
    height: 102
    xOffset: 5
    yOffset: 73
    xAdvance: 105
    scale: 1.1
    name: emoji_set_classic_9
    hashCode: 303932324
    unicode: 0
    pivot: {x: -52.5, y: 51}
    sprite: {fileID: 21300018, guid: f31d0534d769f45869d4ee7f649b1d57, type: 3}
  - id: 10
    x: 9
    y: 649
    width: 88
    height: 90
    xOffset: 5
    yOffset: 73
    xAdvance: 88
    scale: 1.1
    name: emoji_set_classic_10
    hashCode: 1439832348
    unicode: 0
    pivot: {x: -44, y: 45}
    sprite: {fileID: 21300020, guid: f31d0534d769f45869d4ee7f649b1d57, type: 3}
  - id: 11
    x: 121
    y: 649
    width: 88
    height: 90
    xOffset: 5
    yOffset: 73
    xAdvance: 88
    scale: 1.1
    name: emoji_set_classic_11
    hashCode: 1439832349
    unicode: 0
    pivot: {x: -44, y: 45}
    sprite: {fileID: 21300022, guid: f31d0534d769f45869d4ee7f649b1d57, type: 3}
  - id: 12
    x: 225
    y: 650
    width: 96
    height: 89
    xOffset: 5
    yOffset: 73
    xAdvance: 96
    scale: 1.1
    name: emoji_set_classic_12
    hashCode: 1439832350
    unicode: 0
    pivot: {x: -48, y: 44.5}
    sprite: {fileID: 21300024, guid: f31d0534d769f45869d4ee7f649b1d57, type: 3}
  - id: 13
    x: 336
    y: 650
    width: 88
    height: 90
    xOffset: 5
    yOffset: 73
    xAdvance: 88
    scale: 1.1
    name: emoji_set_classic_13
    hashCode: 1439832351
    unicode: 0
    pivot: {x: -44, y: 45}
    sprite: {fileID: 21300026, guid: f31d0534d769f45869d4ee7f649b1d57, type: 3}
  - id: 14
    x: 444
    y: 650
    width: 99
    height: 90
    xOffset: 5
    yOffset: 73
    xAdvance: 99
    scale: 1.1
    name: emoji_set_classic_14
    hashCode: 1439832344
    unicode: 0
    pivot: {x: -49.5, y: 45}
    sprite: {fileID: 21300028, guid: f31d0534d769f45869d4ee7f649b1d57, type: 3}
  - id: 15
    x: 3
    y: 549
    width: 99
    height: 90
    xOffset: 5
    yOffset: 73
    xAdvance: 99
    scale: 1.1
    name: emoji_set_classic_15
    hashCode: 1439832345
    unicode: 0
    pivot: {x: -49.5, y: 45}
    sprite: {fileID: 21300030, guid: f31d0534d769f45869d4ee7f649b1d57, type: 3}
  - id: 16
    x: 107
    y: 549
    width: 106
    height: 90
    xOffset: 5
    yOffset: 73
    xAdvance: 106
    scale: 1.1
    name: emoji_set_classic_16
    hashCode: 1439832346
    unicode: 0
    pivot: {x: -53, y: 45}
    sprite: {fileID: 21300032, guid: f31d0534d769f45869d4ee7f649b1d57, type: 3}
  - id: 17
    x: 225
    y: 549
    width: 88
    height: 90
    xOffset: 5
    yOffset: 73
    xAdvance: 88
    scale: 1.1
    name: emoji_set_classic_17
    hashCode: 1439832347
    unicode: 0
    pivot: {x: -44, y: 45}
    sprite: {fileID: 21300034, guid: f31d0534d769f45869d4ee7f649b1d57, type: 3}
  - id: 18
    x: 445
    y: 549
    width: 88
    height: 90
    xOffset: 5
    yOffset: 73
    xAdvance: 88
    scale: 1.1
    name: emoji_set_classic_19
    hashCode: 1439832341
    unicode: 0
    pivot: {x: -44, y: 45}
    sprite: {fileID: 21300038, guid: f31d0534d769f45869d4ee7f649b1d57, type: 3}
  - id: 19
    x: 336
    y: 540
    width: 88
    height: 99
    xOffset: 5
    yOffset: 73
    xAdvance: 88
    scale: 1.1
    name: emoji_set_classic_18
    hashCode: 1439832340
    unicode: 0
    pivot: {x: -44, y: 49.5}
    sprite: {fileID: 21300036, guid: f31d0534d769f45869d4ee7f649b1d57, type: 3}
  - id: 20
    x: 444
    y: 444
    width: 89
    height: 89
    xOffset: 5
    yOffset: 73
    xAdvance: 89
    scale: 1.1
    name: emoji_set_classic_24
    hashCode: 1439832507
    unicode: 0
    pivot: {x: -44.5, y: 44.5}
    sprite: {fileID: 21300048, guid: f31d0534d769f45869d4ee7f649b1d57, type: 3}
  - id: 21
    x: 117
    y: 443
    width: 99
    height: 90
    xOffset: 5
    yOffset: 73
    xAdvance: 99
    scale: 1.1
    name: emoji_set_classic_21
    hashCode: 1439832510
    unicode: 0
    pivot: {x: -49.5, y: 45}
    sprite: {fileID: 21300042, guid: f31d0534d769f45869d4ee7f649b1d57, type: 3}
  - id: 22
    x: 220
    y: 443
    width: 109
    height: 90
    xOffset: 5
    yOffset: 73
    xAdvance: 109
    scale: 1.1
    name: emoji_set_classic_22
    hashCode: 1439832509
    unicode: 0
    pivot: {x: -54.5, y: 45}
    sprite: {fileID: 21300044, guid: f31d0534d769f45869d4ee7f649b1d57, type: 3}
  - id: 23
    x: 336
    y: 443
    width: 88
    height: 90
    xOffset: 5
    yOffset: 73
    xAdvance: 88
    scale: 1.1
    name: emoji_set_classic_23
    hashCode: 1439832508
    unicode: 0
    pivot: {x: -44, y: 45}
    sprite: {fileID: 21300046, guid: f31d0534d769f45869d4ee7f649b1d57, type: 3}
  - id: 24
    x: 9
    y: 432
    width: 88
    height: 101
    xOffset: 5
    yOffset: 73
    xAdvance: 88
    scale: 1.1
    name: emoji_set_classic_20
    hashCode: 1439832511
    unicode: 0
    pivot: {x: -44, y: 50.5}
    sprite: {fileID: 21300040, guid: f31d0534d769f45869d4ee7f649b1d57, type: 3}
  - id: 25
    x: 10
    y: 335
    width: 88
    height: 89
    xOffset: 5
    yOffset: 73
    xAdvance: 88
    scale: 1.1
    name: emoji_set_classic_25
    hashCode: 1439832506
    unicode: 0
    pivot: {x: -44, y: 44.5}
    sprite: {fileID: 21300050, guid: f31d0534d769f45869d4ee7f649b1d57, type: 3}
  - id: 26
    x: 117
    y: 334
    width: 96
    height: 90
    xOffset: 5
    yOffset: 73
    xAdvance: 96
    scale: 1.1
    name: emoji_set_classic_26
    hashCode: 1439832505
    unicode: 0
    pivot: {x: -48, y: 45}
    sprite: {fileID: 21300052, guid: f31d0534d769f45869d4ee7f649b1d57, type: 3}
  - id: 27
    x: 226
    y: 335
    width: 87
    height: 89
    xOffset: 5
    yOffset: 73
    xAdvance: 87
    scale: 1.1
    name: emoji_set_classic_27
    hashCode: 1439832504
    unicode: 0
    pivot: {x: -43.5, y: 44.5}
    sprite: {fileID: 21300054, guid: f31d0534d769f45869d4ee7f649b1d57, type: 3}
  - id: 28
    x: 336
    y: 335
    width: 95
    height: 89
    xOffset: 5
    yOffset: 73
    xAdvance: 95
    scale: 1.1
    name: emoji_set_classic_28
    hashCode: 1439832503
    unicode: 0
    pivot: {x: -47.5, y: 44.5}
    sprite: {fileID: 21300056, guid: f31d0534d769f45869d4ee7f649b1d57, type: 3}
  - id: 29
    x: 447
    y: 335
    width: 87
    height: 89
    xOffset: 5
    yOffset: 73
    xAdvance: 87
    scale: 1.1
    name: emoji_set_classic_29
    hashCode: 1439832502
    unicode: 0
    pivot: {x: -43.5, y: 44.5}
    sprite: {fileID: 21300058, guid: f31d0534d769f45869d4ee7f649b1d57, type: 3}
  - id: 30
    x: 10
    y: 233
    width: 88
    height: 97
    xOffset: 5
    yOffset: 73
    xAdvance: 88
    scale: 1.1
    name: emoji_set_classic_30
    hashCode: 1439832414
    unicode: 0
    pivot: {x: -44, y: 48.5}
    sprite: {fileID: 21300060, guid: f31d0534d769f45869d4ee7f649b1d57, type: 3}
  - id: 31
    x: 121
    y: 233
    width: 88
    height: 89
    xOffset: 5
    yOffset: 73
    xAdvance: 88
    scale: 1.1
    name: emoji_set_classic_31
    hashCode: 1439832415
    unicode: 0
    pivot: {x: -44, y: 44.5}
    sprite: {fileID: 21300062, guid: f31d0534d769f45869d4ee7f649b1d57, type: 3}
  - id: 32
    x: 225
    y: 229
    width: 87
    height: 92
    xOffset: 5
    yOffset: 73
    xAdvance: 87
    scale: 1.1
    name: emoji_set_classic_32
    hashCode: 1439832412
    unicode: 0
    pivot: {x: -43.5, y: 46}
    sprite: {fileID: 21300064, guid: f31d0534d769f45869d4ee7f649b1d57, type: 3}
  - id: 33
    x: 336
    y: 233
    width: 87
    height: 89
    xOffset: 5
    yOffset: 73
    xAdvance: 87
    scale: 1.1
    name: emoji_set_classic_33
    hashCode: 1439832413
    unicode: 0
    pivot: {x: -43.5, y: 44.5}
    sprite: {fileID: 21300066, guid: f31d0534d769f45869d4ee7f649b1d57, type: 3}
  - id: 34
    x: 446
    y: 230
    width: 89
    height: 93
    xOffset: 5
    yOffset: 73
    xAdvance: 89
    scale: 1.1
    name: emoji_set_classic_34
    hashCode: 1439832410
    unicode: 0
    pivot: {x: -44.5, y: 46.5}
    sprite: {fileID: 21300068, guid: f31d0534d769f45869d4ee7f649b1d57, type: 3}
  - id: 35
    x: 12
    y: 124
    width: 87
    height: 89
    xOffset: 5
    yOffset: 73
    xAdvance: 87
    scale: 1.1
    name: emoji_set_classic_35
    hashCode: 1439832411
    unicode: 0
    pivot: {x: -43.5, y: 44.5}
    sprite: {fileID: 21300070, guid: f31d0534d769f45869d4ee7f649b1d57, type: 3}
  - id: 36
    x: 122
    y: 115
    width: 87
    height: 102
    xOffset: 5
    yOffset: 73
    xAdvance: 87
    scale: 1.1
    name: emoji_set_classic_36
    hashCode: 1439832408
    unicode: 0
    pivot: {x: -43.5, y: 51}
    sprite: {fileID: 21300072, guid: f31d0534d769f45869d4ee7f649b1d57, type: 3}
  - id: 37
    x: 224
    y: 123
    width: 96
    height: 102
    xOffset: 5
    yOffset: 73
    xAdvance: 96
    scale: 1.1
    name: emoji_set_classic_37
    hashCode: 1439832409
    unicode: 0
    pivot: {x: -48, y: 51}
    sprite: {fileID: 21300074, guid: f31d0534d769f45869d4ee7f649b1d57, type: 3}
  - id: 38
    x: 336
    y: 124
    width: 87
    height: 92
    xOffset: 5
    yOffset: 73
    xAdvance: 87
    scale: 1.1
    name: emoji_set_classic_38
    hashCode: 1439832406
    unicode: 0
    pivot: {x: -43.5, y: 46}
    sprite: {fileID: 21300076, guid: f31d0534d769f45869d4ee7f649b1d57, type: 3}
  - id: 39
    x: 444
    y: 127
    width: 87
    height: 89
    xOffset: 5
    yOffset: 73
    xAdvance: 87
    scale: 1.1
    name: emoji_set_classic_39
    hashCode: 1439832407
    unicode: 0
    pivot: {x: -43.5, y: 44.5}
    sprite: {fileID: 21300078, guid: f31d0534d769f45869d4ee7f649b1d57, type: 3}
  - id: 40
    x: 9
    y: 5
    width: 96
    height: 91
    xOffset: 5
    yOffset: 73
    xAdvance: 96
    scale: 1.1
    name: emoji_set_classic_40
    hashCode: 1439832313
    unicode: 0
    pivot: {x: -48, y: 45.5}
    sprite: {fileID: 21300080, guid: f31d0534d769f45869d4ee7f649b1d57, type: 3}
  - id: 41
    x: 115
    y: 5
    width: 96
    height: 90
    xOffset: 5
    yOffset: 73
    xAdvance: 96
    scale: 1.1
    name: emoji_set_classic_41
    hashCode: 1439832312
    unicode: 0
    pivot: {x: -48, y: 45}
    sprite: {fileID: 21300082, guid: f31d0534d769f45869d4ee7f649b1d57, type: 3}
  - id: 42
    x: 225
    y: 9
    width: 90
    height: 91
    xOffset: 5
    yOffset: 73
    xAdvance: 90
    scale: 1.1
    name: emoji_set_classic_42
    hashCode: 1439832315
    unicode: 0
    pivot: {x: -45, y: 45.5}
    sprite: {fileID: 21300084, guid: f31d0534d769f45869d4ee7f649b1d57, type: 3}
  - id: 43
    x: 336
    y: 9
    width: 88
    height: 86
    xOffset: 5
    yOffset: 73
    xAdvance: 88
    scale: 1.1
    name: emoji_set_classic_43
    hashCode: 1439832314
    unicode: 0
    pivot: {x: -44, y: 43}
    sprite: {fileID: 21300086, guid: f31d0534d769f45869d4ee7f649b1d57, type: 3}
  - id: 44
    x: 447
    y: 6
    width: 86
    height: 93
    xOffset: 5
    yOffset: 73
    xAdvance: 86
    scale: 1.1
    name: emoji_set_classic_44
    hashCode: 1439832317
    unicode: 0
    pivot: {x: -43, y: 46.5}
    sprite: {fileID: 21300088, guid: f31d0534d769f45869d4ee7f649b1d57, type: 3}
  fallbackSpriteAssets: []
--- !u!21 &21765685661034196
Material:
  serializedVersion: 6
  m_ObjectHideFlags: 1
  m_CorrespondingSourceObject: {fileID: 0}
  m_PrefabInstance: {fileID: 0}
  m_PrefabAsset: {fileID: 0}
  m_Name: TextMeshPro/Sprite
  m_Shader: {fileID: 4800000, guid: cf81c85f95fe47e1a27f6ae460cf182c, type: 3}
  m_ShaderKeywords: 
  m_LightmapFlags: 4
  m_EnableInstancingVariants: 0
  m_DoubleSidedGI: 0
  m_CustomRenderQueue: -1
  stringTagMap: {}
  disabledShaderPasses: []
  m_SavedProperties:
    serializedVersion: 3
    m_TexEnvs:
    - _MainTex:
        m_Texture: {fileID: 2800000, guid: f31d0534d769f45869d4ee7f649b1d57, type: 3}
        m_Scale: {x: 1, y: 1}
        m_Offset: {x: 0, y: 0}
    m_Floats:
    - _ColorMask: 15
    - _Stencil: 0
    - _StencilComp: 8
    - _StencilOp: 0
    - _StencilReadMask: 255
    - _StencilWriteMask: 255
    - _UseUIAlphaClip: 0
    m_Colors:
    - _ClipRect: {r: -32767, g: -32767, b: 32767, a: 32767}
    - _Color: {r: 1, g: 1, b: 1, a: 1}
